<?xml version="1.0" encoding="utf-8"?>
<!-- Generator: Adobe Illustrator 21.0.1, SVG Export Plug-In . SVG Version: 6.00 Build 0)  -->
<svg version="1.1" id="Layer_1" xmlns="http://www.w3.org/2000/svg" xmlns:xlink="http://www.w3.org/1999/xlink" x="0px" y="0px"
	 width="36px" height="36px" viewBox="0 0 36 36" style="enable-background:new 0 0 36 36;" xml:space="preserve">
<style type="text/css">
	.st0{fill:#FFFFFF;}
</style>
<g>
	<path class="st0" d="M33.5,32.3c0-0.2,0-0.4,0-0.6c0-3.6,0-3.6,0-7.2c0-0.9,0.5-1.5,1.2-1.5c0.7,0,1.3,0.6,1.3,1.5
		c0,4.2,0,4.8,0,8.9c0,0.9-0.5,1.4-1.4,1.4c-11.1,0-22.1,0-33.2,0c-0.9,0-1.4-0.5-1.4-1.4c0-4.2,0-4.8,0-9C0,23.5,0.5,23,1.2,23
		c0.7,0,1.2,0.5,1.2,1.4c0,3.6,0,3.6,0,7.2c0,0.2,0,0.4,0,0.7C12.8,32.3,23.1,32.3,33.5,32.3z"/>
	<path class="st0" d="M19.4,24.2c1.1-1,2.1-1.9,3.1-2.9c0.7-0.6,1.3-1.2,2-1.8c0.6-0.6,1.3-0.6,1.7-0.1c0.5,0.5,0.5,1.2-0.1,1.8
		c-2.4,2.2-4.7,4.4-7.1,6.6c-0.6,0.5-1.2,0.5-1.7,0c-2.4-2.2-4.9-4.4-7.3-6.6c-0.6-0.5-0.6-1.3-0.1-1.8c0.5-0.5,1.2-0.5,1.8,0
		c1.7,1.5,3.4,3.1,5.3,4.8c0-0.3,0-0.5,0-0.7c0-6.9,0-13.7,0-20.6c0-0.3,0-0.5,0.1-0.8c0.1-0.6,0.7-0.9,1.3-0.9
		c0.6,0,1.1,0.5,1.1,1.1c0,0.2,0,0.3,0,0.5c0,6.9,0,13.8,0,20.7C19.4,23.7,19.4,23.9,19.4,24.2z"/>
</g>
</svg>
