<?xml version="1.0" encoding="utf-8"?>
<!-- Generator: Adobe Illustrator 21.1.0, SVG Export Plug-In . SVG Version: 6.00 Build 0)  -->
<svg version="1.1" id="Layer_2" xmlns="http://www.w3.org/2000/svg" xmlns:xlink="http://www.w3.org/1999/xlink" x="0px" y="0px"
	 width="48px" height="48px" viewBox="0 0 48 48" style="enable-background:new 0 0 48 48;" xml:space="preserve">
<style type="text/css">
	.st0{fill:#FFFFFF;}
</style>
<path class="st0" d="M30.5,25.2l0.6-5h-4.9v-3.2c0-1.4,0.4-2.4,2.5-2.4l2.6,0v-4.5c-0.5-0.1-2-0.2-3.8-0.2c-3.8,0-6.4,2.3-6.4,6.6
	v3.7h-4.3v5H21V38h5.1V25.2H30.5z"/>
<g>
	<path class="st0" d="M24,1.2c12.6,0,22.8,10.2,22.8,22.8S36.6,46.8,24,46.8S1.2,36.6,1.2,24S11.4,1.2,24,1.2 M24,0
		C10.7,0,0,10.7,0,24s10.7,24,24,24s24-10.7,24-24S37.3,0,24,0L24,0z"/>
</g>
</svg>
