<?xml version="1.0" encoding="utf-8"?>
<!-- Generator: Adobe Illustrator 21.1.0, SVG Export Plug-In . SVG Version: 6.00 Build 0)  -->
<svg version="1.1" xmlns="http://www.w3.org/2000/svg" xmlns:xlink="http://www.w3.org/1999/xlink" x="0px" y="0px" width="48px"
	 height="48px" viewBox="0 0 48 48" style="enable-background:new 0 0 48 48;" xml:space="preserve">
<style type="text/css">
	.st0{fill:#FFFFFF;}
	.st1{fill:#404041;}
</style>
<g id="Layer_1">
	<g>
		<path class="st0" d="M24,1.2c12.6,0,22.8,10.2,22.8,22.8S36.6,46.8,24,46.8S1.2,36.6,1.2,24S11.4,1.2,24,1.2 M24,0
			C10.7,0,0,10.7,0,24s10.7,24,24,24s24-10.7,24-24S37.3,0,24,0L24,0z"/>
	</g>
	<g>
		<path class="st1" d="M25.3,22.4L25.3,22.4C25.3,22.4,25.3,22.4,25.3,22.4L25.3,22.4z"/>
		<rect x="13.3" y="20.3" class="st0" width="4.7" height="14.2"/>
		<path class="st0" d="M15.6,18.4L15.6,18.4c-1.6,0-2.6-1.1-2.6-2.5c0-1.4,1.1-2.5,2.7-2.5c1.6,0,2.6,1.1,2.6,2.5
			C18.3,17.3,17.3,18.4,15.6,18.4z"/>
		<path class="st0" d="M35,34.5h-4.7v-7.6c0-1.9-0.7-3.2-2.4-3.2c-1.3,0-2.1,0.9-2.4,1.7c-0.1,0.3-0.2,0.7-0.2,1.1v7.9h-4.7
			c0,0,0.1-12.9,0-14.2h4.7v2c0.6-1,1.7-2.3,4.3-2.3c3.1,0,5.4,2,5.4,6.4V34.5z"/>
	</g>
</g>
<g id="Layer_2">
</g>
</svg>
