<?xml version="1.0" encoding="utf-8"?>
<!-- Generator: Adobe Illustrator 21.1.0, SVG Export Plug-In . SVG Version: 6.00 Build 0)  -->
<svg version="1.1" id="Layer_1" xmlns="http://www.w3.org/2000/svg" xmlns:xlink="http://www.w3.org/1999/xlink" x="0px" y="0px"
	 width="60px" height="60px" viewBox="0 0 60 60" style="enable-background:new 0 0 60 60;" xml:space="preserve">
<style type="text/css">
	.st0{fill:#FFFFFF;}
</style>
<rect x="5" y="28.5" transform="matrix(0.7071 -0.7071 0.7071 0.7071 -12.4264 30)" class="st0" width="50" height="3"/>
<rect x="5" y="28.5" transform="matrix(0.7071 0.7071 -0.7071 0.7071 30 -12.4264)" class="st0" width="50" height="3"/>
</svg>
