0000.000 (0) Opened log file at time: Fri, 25 Sep 2020 13:44:30 +0000 on https://www.jobsohio.com
0000.004 (0) UpdraftPlus WordPress backup plugin (https://updraftplus.com): 2.16.16.24 WP: 5.5.1 PHP: 7.2.24-0ubuntu0.18.04.6 (fpm-fcgi, Linux ip-172-30-0-209 5.3.0-1032-aws #34~18.04.2-Ubuntu SMP Fri Jul 24 10:06:28 UTC 2020 x86_64) MySQL: 5.6.10 WPLANG: en_US Server: Apache/2.4.29 (Ubuntu) safe_mode: 0 max_execution_time: 900 memory_limit: 512M (used: 27.6M | 4M) multisite: N openssl: OpenSSL 1.1.1  11 Sep 2018 mcrypt: N LANG:  ZipArchive::addFile: N
0000.009 (0) Free space on disk containing Updraft's temporary directory: 5774 MB
0000.015 (0) Tasks: Backup files: 1 (schedule: unset) Backup DB: 1 (schedule: unset)
0000.023 (0) Requesting semaphore lock (fd) (apparently not via scheduler)
0000.042 (0) Set semaphore last lock (fd) time to 2020-09-25 13:44:30
0000.046 (0) Semaphore lock (fd) complete
0000.062 (0) Backup run: resumption=0, nonce=eb36247b902d, file_nonce=eb36247b902d begun at=1601041470 (0s ago), job type=backup, label=Automatic backup before update
0000.071 (0) Scheduling a resumption (1) after 300 seconds (1601041770) in case this run gets aborted
0000.096 (0) Checking if we have a zip executable available
0000.106 (0) Zip engine: ZipArchive (a.k.a. php-zip) is not available or is disabled (will use PclZip (much slower) if needed)
0000.110 (0) Creation of backups of directories: beginning
0000.124 (0) No backup of plugins: excluded by user's options
0000.133 (0) Beginning creation of dump of themes (split every: 400 MB)
0000.154 (0) Total entities for the zip file: 83 directories, 462 files (0 skipped as non-modified), 11.6 MB
0000.160 (0) Only one archive required (UpdraftPlus_PclZip) - will attempt to do in single operation (data: 11896 KB, split: 409600 KB)
0000.176 (0) Zip: backup_2020-09-25-0944_JobsOhio_eb36247b902d-themes.zip.tmp: 100 files added (on-disk size: 0 KB)
0000.182 (0) Zip: backup_2020-09-25-0944_JobsOhio_eb36247b902d-themes.zip.tmp: 200 files added (on-disk size: 0 KB)
0000.187 (0) Zip: backup_2020-09-25-0944_JobsOhio_eb36247b902d-themes.zip.tmp: 300 files added (on-disk size: 0 KB)
0000.194 (0) Zip: backup_2020-09-25-0944_JobsOhio_eb36247b902d-themes.zip.tmp: 400 files added (on-disk size: 0 KB)
0001.329 (0) Created themes zip (0) - 5957.2 KB in 1.2 s (5018 KB/s) (sha1: 1666f522a48b4b4fd3f584507177d9c8a8bce42a, sha256: 168ac23057eb34120c407b3d099226d9f434027787ad25fea25f45e2bb5ab9ab)
0001.336 (0) No backup of uploads: excluded by user's options
0001.340 (0) No backup of wpcore: excluded by user's options
0001.347 (0) No backup of others: excluded by user's options
0001.352 (0) No backup of more: excluded by user's options
0001.370 (0) Saving backup status to database (elements: 2)
0001.381 (0) Beginning creation of database dump (WordPress DB)
0001.403 (0) Table jowp_options: Total expected rows (approximate): 487
0001.534 (0) Table jowp_options: Total rows added: 495 in 0.13 seconds
0001.540 (0) Table jowp_options: finishing file (backup_2020-09-25-0944_JobsOhio_eb36247b902d-db-table-jowp_options.table.gz - 382.3 KB)
0001.556 (0) Table jowp_users: Total expected rows (approximate): 12
0001.561 (0) Table jowp_users: Total rows added: 12 in 0.00 seconds
0001.566 (0) Table jowp_users: finishing file (backup_2020-09-25-0944_JobsOhio_eb36247b902d-db-table-jowp_users.table.gz - 1.4 KB)
0001.586 (0) Table jowp_usermeta: Total expected rows (approximate): 515
0001.597 (0) Table jowp_usermeta: Total rows added: 501 in 0.01 seconds
0001.604 (0) Table jowp_usermeta: finishing file (backup_2020-09-25-0944_JobsOhio_eb36247b902d-db-table-jowp_usermeta.table.gz - 10.9 KB)
0001.616 (0) Table jowp_commentmeta: Total expected rows (approximate): 0
0001.623 (0) Table jowp_commentmeta: Total rows added: 0 in 0.00 seconds
0001.627 (0) Table jowp_commentmeta: finishing file (backup_2020-09-25-0944_JobsOhio_eb36247b902d-db-table-jowp_commentmeta.table.gz - 0.4 KB)
0001.641 (0) Table jowp_comments: Total expected rows (approximate): 18
0001.648 (0) Table jowp_comments: Total rows added: 20 in 0.00 seconds
0001.651 (0) Table jowp_comments: finishing file (backup_2020-09-25-0944_JobsOhio_eb36247b902d-db-table-jowp_comments.table.gz - 3.9 KB)
0001.671 (0) Table jowp_links: Total expected rows (approximate): 0
0001.678 (0) Table jowp_links: Total rows added: 0 in 0.00 seconds
0001.682 (0) Table jowp_links: finishing file (backup_2020-09-25-0944_JobsOhio_eb36247b902d-db-table-jowp_links.table.gz - 0.4 KB)
0001.694 (0) Table jowp_postmeta: Total expected rows (approximate): 136477
0032.234 (0) Table jowp_postmeta: Total rows added: 121251 in 30.53 seconds
0032.239 (0) Table jowp_postmeta: finishing file (backup_2020-09-25-0944_JobsOhio_eb36247b902d-db-table-jowp_postmeta.table.gz - 27887 KB)
0032.254 (0) Table jowp_posts: Total expected rows (approximate): 13459
0068.351 (0) Table jowp_posts: Total rows added: 14432 in 36.09 seconds
0068.359 (0) Table jowp_posts: finishing file (backup_2020-09-25-0944_JobsOhio_eb36247b902d-db-table-jowp_posts.table.gz - 36167.2 KB)
0068.373 (0) Table jowp_term_relationships: Total expected rows (approximate): 13435
0068.439 (0) Table jowp_term_relationships: Total rows added: 13364 in 0.06 seconds
0068.443 (0) Table jowp_term_relationships: finishing file (backup_2020-09-25-0944_JobsOhio_eb36247b902d-db-table-jowp_term_relationships.table.gz - 38.8 KB)
0068.457 (0) Table jowp_term_taxonomy: Total expected rows (approximate): 8883
0068.534 (0) Table jowp_term_taxonomy: Total rows added: 9112 in 0.07 seconds
0068.538 (0) Table jowp_term_taxonomy: finishing file (backup_2020-09-25-0944_JobsOhio_eb36247b902d-db-table-jowp_term_taxonomy.table.gz - 51.2 KB)
0068.553 (0) Table jowp_termmeta: Total expected rows (approximate): 0
0068.559 (0) Table jowp_termmeta: Total rows added: 0 in 0.00 seconds
0068.563 (0) Table jowp_termmeta: finishing file (backup_2020-09-25-0944_JobsOhio_eb36247b902d-db-table-jowp_termmeta.table.gz - 0.4 KB)
0068.577 (0) Table jowp_terms: Total expected rows (approximate): 8742
0068.676 (0) Table jowp_terms: Total rows added: 9112 in 0.09 seconds
0068.683 (0) Table jowp_terms: finishing file (backup_2020-09-25-0944_JobsOhio_eb36247b902d-db-table-jowp_terms.table.gz - 114.9 KB)
0068.698 (0) Table jowp_blc_filters: Total expected rows (approximate): 0
0068.704 (0) Table jowp_blc_filters: Total rows added: 0 in 0.00 seconds
0068.707 (0) Table jowp_blc_filters: finishing file (backup_2020-09-25-0944_JobsOhio_eb36247b902d-db-table-jowp_blc_filters.table.gz - 0.3 KB)
0068.722 (0) Table jowp_blc_instances: Total expected rows (approximate): 1139
0068.741 (0) Table jowp_blc_instances: Total rows added: 1139 in 0.02 seconds
0068.747 (0) Table jowp_blc_instances: finishing file (backup_2020-09-25-0944_JobsOhio_eb36247b902d-db-table-jowp_blc_instances.table.gz - 30.1 KB)
0068.761 (0) Table jowp_blc_links: Total expected rows (approximate): 650
0068.796 (0) Table jowp_blc_links: Total rows added: 650 in 0.03 seconds
0068.800 (0) Table jowp_blc_links: finishing file (backup_2020-09-25-0944_JobsOhio_eb36247b902d-db-table-jowp_blc_links.table.gz - 101 KB)
0068.815 (0) Table jowp_blc_synch: Total expected rows (approximate): 308
0068.821 (0) Table jowp_blc_synch: Total rows added: 308 in 0.00 seconds
0068.825 (0) Table jowp_blc_synch: finishing file (backup_2020-09-25-0944_JobsOhio_eb36247b902d-db-table-jowp_blc_synch.table.gz - 2.2 KB)
0068.841 (0) Table jowp_cf7_vdata: Total expected rows (approximate): 0
0068.846 (0) Table jowp_cf7_vdata: Total rows added: 0 in 0.00 seconds
0068.850 (0) Table jowp_cf7_vdata: finishing file (backup_2020-09-25-0944_JobsOhio_eb36247b902d-db-table-jowp_cf7_vdata.table.gz - 0.3 KB)
0068.865 (0) Table jowp_cf7_vdata_entry: Total expected rows (approximate): 0
0068.870 (0) Table jowp_cf7_vdata_entry: Total rows added: 0 in 0.00 seconds
0068.874 (0) Table jowp_cf7_vdata_entry: finishing file (backup_2020-09-25-0944_JobsOhio_eb36247b902d-db-table-jowp_cf7_vdata_entry.table.gz - 0.3 KB)
0068.888 (0) Table jowp_gf_addon_feed: Total expected rows (approximate): 39
0068.899 (0) Table jowp_gf_addon_feed: Total rows added: 40 in 0.01 seconds
0068.904 (0) Table jowp_gf_addon_feed: finishing file (backup_2020-09-25-0944_JobsOhio_eb36247b902d-db-table-jowp_gf_addon_feed.table.gz - 2.3 KB)
0068.918 (0) Table jowp_gf_draft_submissions: Total expected rows (approximate): 0
0068.926 (0) Table jowp_gf_draft_submissions: Total rows added: 0 in 0.00 seconds
0068.931 (0) Table jowp_gf_draft_submissions: finishing file (backup_2020-09-25-0944_JobsOhio_eb36247b902d-db-table-jowp_gf_draft_submissions.table.gz - 0.4 KB)
0068.945 (0) Table jowp_gf_entry: Total expected rows (approximate): 2836
0069.003 (0) Table jowp_gf_entry: Total rows added: 3142 in 0.05 seconds
0069.007 (0) Table jowp_gf_entry: finishing file (backup_2020-09-25-0944_JobsOhio_eb36247b902d-db-table-jowp_gf_entry.table.gz - 83.4 KB)
0069.019 (0) Table jowp_gf_entry_meta: Total expected rows (approximate): 29108
0069.500 (0) Table jowp_gf_entry_meta: Total rows added: 30238 in 0.47 seconds
0069.505 (0) Table jowp_gf_entry_meta: finishing file (backup_2020-09-25-0944_JobsOhio_eb36247b902d-db-table-jowp_gf_entry_meta.table.gz - 472.9 KB)
0069.518 (0) Table jowp_gf_entry_notes: Total expected rows (approximate): 187
0069.529 (0) Table jowp_gf_entry_notes: Total rows added: 188 in 0.01 seconds
0069.534 (0) Table jowp_gf_entry_notes: finishing file (backup_2020-09-25-0944_JobsOhio_eb36247b902d-db-table-jowp_gf_entry_notes.table.gz - 3.4 KB)
0069.550 (0) Table jowp_gf_form: Total expected rows (approximate): 33
0069.557 (0) Table jowp_gf_form: Total rows added: 34 in 0.00 seconds
0069.562 (0) Table jowp_gf_form: finishing file (backup_2020-09-25-0944_JobsOhio_eb36247b902d-db-table-jowp_gf_form.table.gz - 1.2 KB)
0069.576 (0) Table jowp_gf_form_meta: Total expected rows (approximate): 26
0069.598 (0) Table jowp_gf_form_meta: Total rows added: 34 in 0.02 seconds
0069.605 (0) Table jowp_gf_form_meta: finishing file (backup_2020-09-25-0944_JobsOhio_eb36247b902d-db-table-jowp_gf_form_meta.table.gz - 37.8 KB)
0069.621 (0) Table jowp_gf_form_revisions: Total expected rows (approximate): 2
0069.631 (0) Table jowp_gf_form_revisions: Total rows added: 2 in 0.01 seconds
0069.637 (0) Table jowp_gf_form_revisions: finishing file (backup_2020-09-25-0944_JobsOhio_eb36247b902d-db-table-jowp_gf_form_revisions.table.gz - 2.2 KB)
0069.649 (0) Table jowp_gf_form_view: Total expected rows (approximate): 2931
0069.673 (0) Table jowp_gf_form_view: Total rows added: 2999 in 0.02 seconds
0069.678 (0) Table jowp_gf_form_view: finishing file (backup_2020-09-25-0944_JobsOhio_eb36247b902d-db-table-jowp_gf_form_view.table.gz - 30.4 KB)
0069.697 (0) Table jowp_wplnst_scans: Total expected rows (approximate): 2
0069.704 (0) Table jowp_wplnst_scans: Total rows added: 2 in 0.00 seconds
0069.710 (0) Table jowp_wplnst_scans: finishing file (backup_2020-09-25-0944_JobsOhio_eb36247b902d-db-table-jowp_wplnst_scans.table.gz - 1.3 KB)
0069.726 (0) Table jowp_wplnst_scans_objects: Total expected rows (approximate): 0
0069.734 (0) Table jowp_wplnst_scans_objects: Total rows added: 0 in 0.00 seconds
0069.738 (0) Table jowp_wplnst_scans_objects: finishing file (backup_2020-09-25-0944_JobsOhio_eb36247b902d-db-table-jowp_wplnst_scans_objects.table.gz - 0.4 KB)
0069.757 (0) Table jowp_wplnst_urls: Total expected rows (approximate): 525
0069.787 (0) Table jowp_wplnst_urls: Total rows added: 525 in 0.03 seconds
0069.791 (0) Table jowp_wplnst_urls: finishing file (backup_2020-09-25-0944_JobsOhio_eb36247b902d-db-table-jowp_wplnst_urls.table.gz - 38.7 KB)
0069.816 (0) Table jowp_wplnst_urls_locations: Total expected rows (approximate): 1017
0069.870 (0) Table jowp_wplnst_urls_locations: Total rows added: 1017 in 0.05 seconds
0069.875 (0) Table jowp_wplnst_urls_locations: finishing file (backup_2020-09-25-0944_JobsOhio_eb36247b902d-db-table-jowp_wplnst_urls_locations.table.gz - 40.5 KB)
0069.905 (0) Table jowp_wplnst_urls_locations_att: Total expected rows (approximate): 0
0069.911 (0) Table jowp_wplnst_urls_locations_att: Total rows added: 0 in 0.00 seconds
0069.915 (0) Table jowp_wplnst_urls_locations_att: finishing file (backup_2020-09-25-0944_JobsOhio_eb36247b902d-db-table-jowp_wplnst_urls_locations_att.table.gz - 0.4 KB)
0069.938 (0) Table jowp_wplnst_urls_status: Total expected rows (approximate): 648
0070.032 (0) Table jowp_wplnst_urls_status: Total rows added: 686 in 0.09 seconds
0070.036 (0) Table jowp_wplnst_urls_status: finishing file (backup_2020-09-25-0944_JobsOhio_eb36247b902d-db-table-jowp_wplnst_urls_status.table.gz - 39.5 KB)
0070.049 (0) Table jowp_yoast_indexable: Total expected rows (approximate): 3600
0070.197 (0) Table jowp_yoast_indexable: Total rows added: 3388 in 0.14 seconds
0070.203 (0) Table jowp_yoast_indexable: finishing file (backup_2020-09-25-0944_JobsOhio_eb36247b902d-db-table-jowp_yoast_indexable.table.gz - 348.8 KB)
0070.217 (0) Table jowp_yoast_indexable_hierarchy: Total expected rows (approximate): 211
0070.224 (0) Table jowp_yoast_indexable_hierarchy: Total rows added: 211 in 0.00 seconds
0070.228 (0) Table jowp_yoast_indexable_hierarchy: finishing file (backup_2020-09-25-0944_JobsOhio_eb36247b902d-db-table-jowp_yoast_indexable_hierarchy.table.gz - 1 KB)
0070.247 (0) Table jowp_yoast_migrations: Total expected rows (approximate): 18
0070.266 (0) Table jowp_yoast_migrations: Total rows added: 19 in 0.01 seconds
0070.272 (0) Table jowp_yoast_migrations: finishing file (backup_2020-09-25-0944_JobsOhio_eb36247b902d-db-table-jowp_yoast_migrations.table.gz - 0.5 KB)
0070.293 (0) Table jowp_yoast_primary_term: Total expected rows (approximate): 173
0070.303 (0) Table jowp_yoast_primary_term: Total rows added: 187 in 0.01 seconds
0070.308 (0) Table jowp_yoast_primary_term: finishing file (backup_2020-09-25-0944_JobsOhio_eb36247b902d-db-table-jowp_yoast_primary_term.table.gz - 3.4 KB)
0070.329 (0) Table jowp_yoast_prominent_words: Total expected rows (approximate): 1107
0070.341 (0) Table jowp_yoast_prominent_words: Total rows added: 1107 in 0.01 seconds
0070.347 (0) Table jowp_yoast_prominent_words: finishing file (backup_2020-09-25-0944_JobsOhio_eb36247b902d-db-table-jowp_yoast_prominent_words.table.gz - 8.8 KB)
0070.361 (0) Table jowp_yoast_seo_links: Total expected rows (approximate): 5814
0070.423 (0) Table jowp_yoast_seo_links: Total rows added: 5814 in 0.06 seconds
0070.429 (0) Table jowp_yoast_seo_links: finishing file (backup_2020-09-25-0944_JobsOhio_eb36247b902d-db-table-jowp_yoast_seo_links.table.gz - 91 KB)
0070.448 (0) Table jowp_yoast_seo_meta: Total expected rows (approximate): 3207
0070.492 (0) Table jowp_yoast_seo_meta: Total rows added: 3363 in 0.04 seconds
0070.497 (0) Table jowp_yoast_seo_meta: finishing file (backup_2020-09-25-0944_JobsOhio_eb36247b902d-db-table-jowp_yoast_seo_meta.table.gz - 10.1 KB)
0070.511 (0) backup_2020-09-25-0944_JobsOhio_eb36247b902d-db-table-jowp_options.table.gz (1/40): adding to final database dump
0070.589 (0) backup_2020-09-25-0944_JobsOhio_eb36247b902d-db-table-jowp_users.table.gz (2/40): adding to final database dump
0070.595 (0) backup_2020-09-25-0944_JobsOhio_eb36247b902d-db-table-jowp_usermeta.table.gz (3/40): adding to final database dump
0070.604 (0) backup_2020-09-25-0944_JobsOhio_eb36247b902d-db-table-jowp_commentmeta.table.gz (4/40): adding to final database dump
0070.608 (0) backup_2020-09-25-0944_JobsOhio_eb36247b902d-db-table-jowp_comments.table.gz (5/40): adding to final database dump
0070.612 (0) backup_2020-09-25-0944_JobsOhio_eb36247b902d-db-table-jowp_links.table.gz (6/40): adding to final database dump
0070.618 (0) backup_2020-09-25-0944_JobsOhio_eb36247b902d-db-table-jowp_postmeta.table.gz (7/40): adding to final database dump
0076.458 (0) backup_2020-09-25-0944_JobsOhio_eb36247b902d-db-table-jowp_posts.table.gz (8/40): adding to final database dump
0084.380 (0) backup_2020-09-25-0944_JobsOhio_eb36247b902d-db-table-jowp_term_relationships.table.gz (9/40): adding to final database dump
0084.404 (0) backup_2020-09-25-0944_JobsOhio_eb36247b902d-db-table-jowp_term_taxonomy.table.gz (10/40): adding to final database dump
0084.425 (0) backup_2020-09-25-0944_JobsOhio_eb36247b902d-db-table-jowp_termmeta.table.gz (11/40): adding to final database dump
0084.429 (0) backup_2020-09-25-0944_JobsOhio_eb36247b902d-db-table-jowp_terms.table.gz (12/40): adding to final database dump
0084.465 (0) backup_2020-09-25-0944_JobsOhio_eb36247b902d-db-table-jowp_blc_filters.table.gz (13/40): adding to final database dump
0084.470 (0) backup_2020-09-25-0944_JobsOhio_eb36247b902d-db-table-jowp_blc_instances.table.gz (14/40): adding to final database dump
0084.481 (0) backup_2020-09-25-0944_JobsOhio_eb36247b902d-db-table-jowp_blc_links.table.gz (15/40): adding to final database dump
0084.506 (0) backup_2020-09-25-0944_JobsOhio_eb36247b902d-db-table-jowp_blc_synch.table.gz (16/40): adding to final database dump
0084.513 (0) backup_2020-09-25-0944_JobsOhio_eb36247b902d-db-table-jowp_cf7_vdata.table.gz (17/40): adding to final database dump
0084.520 (0) backup_2020-09-25-0944_JobsOhio_eb36247b902d-db-table-jowp_cf7_vdata_entry.table.gz (18/40): adding to final database dump
0084.523 (0) backup_2020-09-25-0944_JobsOhio_eb36247b902d-db-table-jowp_gf_addon_feed.table.gz (19/40): adding to final database dump
0084.527 (0) backup_2020-09-25-0944_JobsOhio_eb36247b902d-db-table-jowp_gf_draft_submissions.table.gz (20/40): adding to final database dump
0084.530 (0) backup_2020-09-25-0944_JobsOhio_eb36247b902d-db-table-jowp_gf_entry.table.gz (21/40): adding to final database dump
0084.554 (0) backup_2020-09-25-0944_JobsOhio_eb36247b902d-db-table-jowp_gf_entry_meta.table.gz (22/40): adding to final database dump
0084.665 (0) backup_2020-09-25-0944_JobsOhio_eb36247b902d-db-table-jowp_gf_entry_notes.table.gz (23/40): adding to final database dump
0084.670 (0) backup_2020-09-25-0944_JobsOhio_eb36247b902d-db-table-jowp_gf_form.table.gz (24/40): adding to final database dump
0084.676 (0) backup_2020-09-25-0944_JobsOhio_eb36247b902d-db-table-jowp_gf_form_meta.table.gz (25/40): adding to final database dump
0084.690 (0) backup_2020-09-25-0944_JobsOhio_eb36247b902d-db-table-jowp_gf_form_revisions.table.gz (26/40): adding to final database dump
0084.694 (0) backup_2020-09-25-0944_JobsOhio_eb36247b902d-db-table-jowp_gf_form_view.table.gz (27/40): adding to final database dump
0084.707 (0) backup_2020-09-25-0944_JobsOhio_eb36247b902d-db-table-jowp_wplnst_scans.table.gz (28/40): adding to final database dump
0084.711 (0) backup_2020-09-25-0944_JobsOhio_eb36247b902d-db-table-jowp_wplnst_scans_objects.table.gz (29/40): adding to final database dump
0084.715 (0) backup_2020-09-25-0944_JobsOhio_eb36247b902d-db-table-jowp_wplnst_urls.table.gz (30/40): adding to final database dump
0084.725 (0) backup_2020-09-25-0944_JobsOhio_eb36247b902d-db-table-jowp_wplnst_urls_locations.table.gz (31/40): adding to final database dump
0084.738 (0) backup_2020-09-25-0944_JobsOhio_eb36247b902d-db-table-jowp_wplnst_urls_locations_att.table.gz (32/40): adding to final database dump
0084.744 (0) backup_2020-09-25-0944_JobsOhio_eb36247b902d-db-table-jowp_wplnst_urls_status.table.gz (33/40): adding to final database dump
0084.758 (0) backup_2020-09-25-0944_JobsOhio_eb36247b902d-db-table-jowp_yoast_indexable.table.gz (34/40): adding to final database dump
0084.828 (0) backup_2020-09-25-0944_JobsOhio_eb36247b902d-db-table-jowp_yoast_indexable_hierarchy.table.gz (35/40): adding to final database dump
0084.835 (0) backup_2020-09-25-0944_JobsOhio_eb36247b902d-db-table-jowp_yoast_migrations.table.gz (36/40): adding to final database dump
0084.838 (0) backup_2020-09-25-0944_JobsOhio_eb36247b902d-db-table-jowp_yoast_primary_term.table.gz (37/40): adding to final database dump
0084.843 (0) backup_2020-09-25-0944_JobsOhio_eb36247b902d-db-table-jowp_yoast_prominent_words.table.gz (38/40): adding to final database dump
0084.850 (0) backup_2020-09-25-0944_JobsOhio_eb36247b902d-db-table-jowp_yoast_seo_links.table.gz (39/40): adding to final database dump
0084.875 (0) backup_2020-09-25-0944_JobsOhio_eb36247b902d-db-table-jowp_yoast_seo_meta.table.gz (40/40): adding to final database dump
0084.887 (0) backup_2020-09-25-0944_JobsOhio_eb36247b902d-db.gz: finished writing out complete database file (65984 KB)
0085.636 (0) Total database tables backed up: 40 (backup_2020-09-25-0944_JobsOhio_eb36247b902d-db.gz, size: 67590474, sha1: 60da53d2966b432da323f386dd46d59f59612e84, sha256: 9dc446d00ff703b653057fc84b415c09b406edb7705543f5f1cec9cdb5c39d9a)
0085.666 (0) backup_2020-09-25-0944_JobsOhio_eb36247b902d-themes.zip: themes: This file has not yet been successfully uploaded: will queue
0085.670 (0) backup_2020-09-25-0944_JobsOhio_eb36247b902d-db.gz: db: This file has not yet been successfully uploaded: will queue
0085.675 (0) Saving backup history. Total backup size: 70.3 MB
0085.684 (0) Requesting upload of the files that have not yet been successfully uploaded (2)
0085.698 (0) Cloud backup selection (1/1): none with instance (1/1) (last)
0085.702 (0) No remote despatch: user chose no remote backup service
0085.707 (0) Recording as successfully uploaded: backup_2020-09-25-0944_JobsOhio_eb36247b902d-themes.zip
0085.714 (0) Recording as successfully uploaded: backup_2020-09-25-0944_JobsOhio_eb36247b902d-db.gz
0085.728 (0) Retain: beginning examination of existing backup sets; user setting: retain_files=2, retain_db=2
0085.733 (0) Number of backup sets in history: 5; groups (db): 1
0085.737 (0) Examining (for databases) backup set with group_id=0, nonce=eb36247b902d, datestamp=1601041470 (Sep 25 2020 13:44:30)
0085.740 (0) This backup set is the backup set just made, so will not be deleted.
0085.740 (0) Examining (for databases) backup set with group_id=0, nonce=546fdbe64864, datestamp=1600701610 (Sep 21 2020 15:20:10)
0085.740 (0) This backup set (1600701610) was an automatic backup, and we have not yet reached any retain limits, so it will not be counted or pruned. Skipping.
0085.740 (0) Examining (for databases) backup set with group_id=0, nonce=670328110181, datestamp=1600701539 (Sep 21 2020 15:18:59)
0085.740 (0) This backup set (1600701539) was an automatic backup, and we have not yet reached any retain limits, so it will not be counted or pruned. Skipping.
0085.740 (0) Examining (for databases) backup set with group_id=0, nonce=7fc334d73ced, datestamp=1600701279 (Sep 21 2020 15:14:39)
0085.740 (0) This backup set remains non-empty (f=1/d=1); will retain in history
0085.746 (0) Examining (for databases) backup set with group_id=0, nonce=ff3a0723e404, datestamp=1596123708 (Jul 30 2020 15:41:48)
0085.746 (0) This backup set (1596123708) was an 'Always Keep' backup, so it will not be pruned. Skipping.
0085.746 (0) Number of backup sets in history: 5; groups (files): 1
0085.751 (0) Examining (for files) backup set with nonce=eb36247b902d, datestamp=1601041470 (Sep 25 2020 13:44:30)
0085.751 (0) This backup set is the backup set just made, so will not be deleted.
0085.757 (0) This backup set remains non-empty (f=1/d=1); will retain in history
0085.763 (0) Examining (for files) backup set with nonce=546fdbe64864, datestamp=1600701610 (Sep 21 2020 15:20:10)
0085.763 (0) This backup set (1600701610) was an automatic backup, and we have not yet reached any retain limits, so it will not be counted or pruned. Skipping.
0085.763 (0) This backup set remains non-empty (f=1/d=1); will retain in history
0085.763 (0) Examining (for files) backup set with nonce=670328110181, datestamp=1600701539 (Sep 21 2020 15:18:59)
0085.763 (0) This backup set (1600701539) was an automatic backup, and we have not yet reached any retain limits, so it will not be counted or pruned. Skipping.
0085.763 (0) This backup set remains non-empty (f=1/d=1); will retain in history
0085.763 (0) Examining (for files) backup set with nonce=7fc334d73ced, datestamp=1600701279 (Sep 21 2020 15:14:39)
0085.763 (0) This backup set remains non-empty (f=1/d=1); will retain in history
0085.763 (0) Examining (for files) backup set with nonce=ff3a0723e404, datestamp=1596123708 (Jul 30 2020 15:41:48)
0085.763 (0) This backup set (1596123708) was an 'Always Keep' backup, and we have not yet reached any retain limits, so it should be counted in the count of how many have been retained for purposes of the 'how many to retain' count. It will not be pruned. Skipping.
0085.763 (0) This backup set (1596123708) was an 'Always Keep' backup, so it will not be pruned. Skipping.
0085.763 (0) This backup set (1596123708) was an 'Always Keep' backup, and we have not yet reached any retain limits, so it should be counted in the count of how many have been retained for purposes of the 'how many to retain' count. It will not be pruned. Skipping.
0085.763 (0) This backup set (1596123708) was an 'Always Keep' backup, and we have not yet reached any retain limits, so it should be counted in the count of how many have been retained for purposes of the 'how many to retain' count. It will not be pruned. Skipping.
0085.763 (0) This backup set remains non-empty (f=1/d=1); will retain in history
0085.763 (0) Retain: saving new backup history (sets now: 5) and finishing retain operation
0085.772 (0) Resume backup (eb36247b902d, 0): finish run
0085.787 (0) Decremented the semaphore (fd) by 1
0085.795 (0) Semaphore (fd) unlocked
0085.799 (0) There were no errors in the uploads, so the 'resume' event (1) is being unscheduled
0085.810 (0) No email will/can be sent - the user has not configured an email address.
0085.813 (0) The backup apparently succeeded and is now complete
