0000.000 (0) Opened log file at time: Mon, 21 Sep 2020 15:20:55 +0000 on https://www.jobsohio.com
0000.004 (0) UpdraftPlus WordPress backup plugin (https://updraftplus.com): 2.16.16.24 WP: 5.5.1 PHP: 7.2.24-0ubuntu0.18.04.6 (fpm-fcgi, Linux ip-172-30-0-209 5.3.0-1032-aws #34~18.04.2-Ubuntu SMP Fri Jul 24 10:06:28 UTC 2020 x86_64) MySQL: 5.6.10 WPLANG: en_US Server: Apache/2.4.29 (Ubuntu) safe_mode: 0 max_execution_time: 900 memory_limit: 512M (used: 27.6M | 2M) multisite: N openssl: OpenSSL 1.1.1  11 Sep 2018 mcrypt: N LANG:  ZipArchive::addFile: N
0000.007 (0) Free space on disk containing Updraft's temporary directory: 5602.5 MB
0000.011 (0) Tasks: Backup files: 1 (schedule: unset) Backup DB: 1 (schedule: unset)
0000.019 (0) Requesting semaphore lock (fd) (apparently not via scheduler)
0000.023 (0) Semaphore lock (fd, jowp_options) failed (line 43)
0000.026 (0) Failed to gain semaphore lock (fd) - another backup of this type is apparently already active - aborting (if this is wrong - i.e. if the other backup crashed without removing the lock, then another can be started after 3 minutes)
